index
…
Design element: data

Consider trips to Australia 🇦🇺 🦘

tourism <- read_csv("https://slides.mitchelloharawild.com/nyr2023/tourism.csv")
tourism

# A tibble: 320 × 3
   Purpose  Quarter    Trips
   <chr>    <date>     <dbl>
 1 Business 1998-01-01 3599.
 2 Business 1998-04-01 3724.
 3 Business 1998-07-01 4356.
 4 Business 1998-10-01 3796.
 5 Business 1999-01-01 3335.
 6 Business 1999-04-01 4714.
 7 Business 1999-07-01 4190.
 8 Business 1999-10-01 3701.
 9 Business 2000-01-01 3562.
10 Business 2000-04-01 4018.
# ℹ 310 more rows
…
Design element: data

The mts data class

A matrix of values with time attributes.

tourism |> 
  pivot_wider(
    names_from = Purpose, 
    values_from = Trips
  ) |> 
  select(-Quarter) |> 
  ts(start = c(1998, 1), frequency = 4)

# A tibble: 80 × 5
   Quarter    Business Holiday Other Visiting
   <date>        <dbl>   <dbl> <dbl>    <dbl>
 1 1998-01-01    3599.  11806.  680.    7098.
 2 1998-04-01    3724.   9276.  656.    6668.
 3 1998-07-01    4356.   8642.  816.    6011.
 4 1998-10-01    3796.   9300.  668.    7067.
 5 1999-01-01    3335.  11172.  675.    6906.
 6 1999-04-01    4714.   9608.  824.    6313.
 7 1999-07-01    4190.   8914.  925.    5886.
 8 1999-10-01    3701.   9026.  897.    6404.
 9 2000-01-01    3562.  11071.  916.    6790.
10 2000-04-01    4018.   9196.  863.    5864.
# ℹ 70 more rows
…
Many time series

It is common to forecast across many disaggregating dimensions, this is hard with ts.

as_tibble(tsibble::tourism) |> 
  pivot_wider(
    names_from = c(Region, State, Purpose), 
    values_from = Trips
  ) |> 
  select(-Quarter) |> 
  as.matrix() |> 
  ts(start = c(1998, 1), frequency = 4)

# A tsibble: 24,320 x 5 [1Q]
# Key:       Region, State, Purpose [304]
   Quarter Region   State           Purpose  Trips
     <qtr> <chr>    <chr>           <chr>    <dbl>
 1 1998 Q1 Adelaide South Australia Business  135.
 2 1998 Q2 Adelaide South Australia Business  110.
 3 1998 Q3 Adelaide South Australia Business  166.
 4 1998 Q4 Adelaide South Australia Business  127.
 5 1999 Q1 Adelaide South Australia Business  137.
 6 1999 Q2 Adelaide South Australia Business  200.
 7 1999 Q3 Adelaide South Australia Business  169.
 8 1999 Q4 Adelaide South Australia Business  134.
 9 2000 Q1 Adelaide South Australia Business  154.
10 2000 Q2 Adelaide South Australia Business  169.
# ℹ 24,310 more rows
…
Many time series

It is common to forecast across many disaggregating dimensions, this is hard with ts.

as_tibble(tsibble::tourism) |> 
  pivot_wider(
    names_from = c(Region, State, Purpose), 
    values_from = Trips
  ) |> 
  select(-Quarter) |> 
  as.matrix() |> 
  ts(start = c(1998, 1), frequency = 4)

# A tibble: 80 × 305
   Quarter Adelaide_South Austra…¹ Adelaide_South Austr…² Adelaide_South Austr…³
     <qtr>                   <dbl>                  <dbl>                  <dbl>
 1 1998 Q1                    135.                   224.                   58.4
 2 1998 Q2                    110.                   130.                   39.5
 3 1998 Q3                    166.                   156.                   38.4
 4 1998 Q4                    127.                   182.                   33.8
 5 1999 Q1                    137.                   185.                   25.9
 6 1999 Q2                    200.                   135.                   54.5
 7 1999 Q3                    169.                   136.                   28.7
 8 1999 Q4                    134.                   169.                   44.9
 9 2000 Q1                    154.                   184.                   56.4
10 2000 Q2                    169.                   134.                   81.0
# ℹ 70 more rows
# ℹ abbreviated names: ¹​`Adelaide_South Australia_Business`,
#   ²​`Adelaide_South Australia_Holiday`, ³​`Adelaide_South Australia_Other`
# ℹ 301 more variables: `Adelaide_South Australia_Visiting` <dbl>,
#   `Adelaide Hills_South Australia_Business` <dbl>,
#   `Adelaide Hills_South Australia_Holiday` <dbl>,
#   `Adelaide Hills_South Australia_Other` <dbl>, …
…
Design element: data

library(tsibble)
tourism_tsbl <- tourism |> 
  mutate(Quarter = yearquarter(Quarter)) |> 
  as_tsibble(
    index = Quarter,
    key = Purpose
  )
tourism_tsbl

# A tsibble: 320 x 3 [1Q]
# Key:       Purpose [4]
   Purpose  Quarter Trips
   <chr>      <qtr> <dbl>
 1 Business 1998 Q1 3599.
 2 Business 1998 Q2 3724.
 3 Business 1998 Q3 4356.
 4 Business 1998 Q4 3796.
 5 Business 1999 Q1 3335.
 6 Business 1999 Q2 4714.
 7 Business 1999 Q3 4190.
 8 Business 1999 Q4 3701.
 9 Business 2000 Q1 3562.
10 Business 2000 Q2 4018.
# ℹ 310 more rows
…
Design element: data

library(tsibble)
tourism

# A tibble: 320 × 3
   Purpose  Quarter    Trips
   <chr>    <date>     <dbl>
 1 Business 1998-01-01 3599.
 2 Business 1998-04-01 3724.
 3 Business 1998-07-01 4356.
 4 Business 1998-10-01 3796.
 5 Business 1999-01-01 3335.
 6 Business 1999-04-01 4714.
 7 Business 1999-07-01 4190.
 8 Business 1999-10-01 3701.
 9 Business 2000-01-01 3562.
10 Business 2000-04-01 4018.
# ℹ 310 more rows
…
Standard data language

Re-use of filter() and other familiar functions make tsibble easier to learn and use.

library(tsibble)
tourism_tsbl <- tourism |> 
  mutate(Quarter = yearquarter(Quarter)) |> 
  as_tsibble(
    index = Quarter,
    key = Purpose
  )
tourism_tsbl |> 
  filter(Quarter >= yearquarter("2012 Q2"))

# A tsibble: 92 x 3 [1Q]
# Key:       Purpose [4]
   Purpose  Quarter Trips
   <chr>      <qtr> <dbl>
 1 Business 2012 Q2 3746.
 2 Business 2012 Q3 4091.
 3 Business 2012 Q4 3825.
 4 Business 2013 Q1 3099.
 5 Business 2013 Q2 4036.
 6 Business 2013 Q3 4096.
 7 Business 2013 Q4 3704.
 8 Business 2014 Q1 3917.
 9 Business 2014 Q2 4505.
10 Business 2014 Q3 4726.
# ℹ 82 more rows
…
Design element: forecasts

fc <- tourism_tsbl |> 
  model(
    ets = ETS(log(Trips + 1) ~ error("A") + trend("A") + season("A"))
  ) |> 
  forecast()
fc

# A fable: 32 x 5 [1Q]
# Key:     Purpose, .model [4]
   Purpose  .model Quarter             Trips  .mean
   <chr>    <chr>    <qtr>            <dist>  <dbl>
 1 Business ets    2018 Q1 t(N(8.5, 0.0054))  4855.
 2 Business ets    2018 Q2 t(N(8.7, 0.0064))  5920.
 3 Business ets    2018 Q3 t(N(8.8, 0.0075))  6440.
 4 Business ets    2018 Q4 t(N(8.7, 0.0087))  6057.
 5 Business ets    2019 Q1   t(N(8.5, 0.01))  5169.
 6 Business ets    2019 Q2  t(N(8.7, 0.012))  6305.
 7 Business ets    2019 Q3  t(N(8.8, 0.013))  6861.
 8 Business ets    2019 Q4  t(N(8.8, 0.015))  6455.
 9 Holiday  ets    2018 Q1 t(N(9.5, 0.0021)) 13413.
10 Holiday  ets    2018 Q2 t(N(9.3, 0.0024)) 11304.
# ℹ 22 more rows
…
Design element: forecasts

fc |> 
  select(-.model) |> 
  mutate(
    .mean = mean(Trips),
    .median = median(Trips),
    .int95 = hilo(Trips, 95)
  )

# A fable: 32 x 6 [1Q]
# Key:     Purpose [4]
   Purpose  Quarter             Trips  .mean .median                   .int95
   <chr>      <qtr>            <dist>  <dbl>   <dbl>                   <hilo>
 1 Business 2018 Q1 t(N(8.5, 0.0054))  4855.   4842. [ 4190.526,  5594.409]95
 2 Business 2018 Q2 t(N(8.7, 0.0064))  5920.   5901. [ 5045.407,  6900.993]95
 3 Business 2018 Q3 t(N(8.8, 0.0075))  6440.   6416. [ 5416.630,  7599.586]95
 4 Business 2018 Q4 t(N(8.7, 0.0087))  6057.   6031. [ 5024.229,  7238.677]95
 5 Business 2019 Q1   t(N(8.5, 0.01))  5169.   5144. [ 4226.427,  6259.683]95
 6 Business 2019 Q2  t(N(8.7, 0.012))  6305.   6268. [ 5077.670,  7738.282]95
 7 Business 2019 Q3  t(N(8.8, 0.013))  6861.   6816. [ 5440.190,  8538.972]95
 8 Business 2019 Q4  t(N(8.8, 0.015))  6455.   6406. [ 5036.361,  8149.156]95
 9 Holiday  2018 Q1 t(N(9.5, 0.0021)) 13413.  13398. [12245.339, 14660.128]95
10 Holiday  2018 Q2 t(N(9.3, 0.0024)) 11304.  11290. [10248.820, 12436.944]95
# ℹ 22 more rows
…
